<svg width="687" height="351" viewBox="0 0 687 351" fill="none" xmlns="http://www.w3.org/2000/svg">
<circle cx="651" cy="36" r="11" fill="#FFC700"/>
<circle cx="36" cy="315" r="11" fill="#FFC700"/>
<path d="M624 32.8207C429.976 8.32973 360.099 45.5191 333.595 86.8785C309.579 124.368 327.902 154.817 297.629 183.284C238.998 238.436 125.156 166.58 64.7641 223.832C45.0735 242.5 38.5061 267.849 36 286" stroke="#0095E9" stroke-width="3" stroke-miterlimit="10" stroke-linecap="round" stroke-dasharray="40 40"/>
<g filter="url(#filter0_f)">
<circle cx="651" cy="36" r="11" fill="#FFC700"/>
</g>
<g filter="url(#filter1_f)">
<circle cx="36" cy="315" r="11" fill="#FFC700"/>
</g>
<defs>
<filter id="filter0_f" x="615" y="0" width="72" height="72" filterUnits="userSpaceOnUse" color-interpolation-filters="sRGB">
<feFlood flood-opacity="0" result="BackgroundImageFix"/>
<feBlend mode="normal" in="SourceGraphic" in2="BackgroundImageFix" result="shape"/>
<feGaussianBlur stdDeviation="12.5" result="effect1_foregroundBlur"/>
</filter>
<filter id="filter1_f" x="0" y="279" width="72" height="72" filterUnits="userSpaceOnUse" color-interpolation-filters="sRGB">
<feFlood flood-opacity="0" result="BackgroundImageFix"/>
<feBlend mode="normal" in="SourceGraphic" in2="BackgroundImageFix" result="shape"/>
<feGaussianBlur stdDeviation="12.5" result="effect1_foregroundBlur"/>
</filter>
</defs>
</svg>
